<svg xmlns="http://www.w3.org/2000/svg" width="35" height="33" viewBox="0 0 35 33">
    <g fill="none" fill-rule="evenodd" stroke="#B37931">
        <path d="M17.5 5.22C17.5 2.566 19.199 1 21.199 1c1.333 0 2.405.703 3.215 2.11M16.753 5.22c-.206-1.116-.714-2.028-1.524-2.735-1.215-1.06-3.017-.252-3.476 1.006M30.728 16.012a3 3 0 0 1 .411 5.985 2.978 2.978 0 0 1-.583.173C29.03 27.955 23.764 32.22 17.5 32.22c-6.257 0-11.52-4.256-13.05-10.033a3 3 0 1 1-.22-5.958C5.397 9.964 10.894 5.221 17.5 5.221c6.528 0 11.974 4.633 13.228 10.791z"/>
        <path d="M7.871 17.72c0-1.5 1.28-2.807 2.784-2.807 1.504 0 2.723 1.308 2.723 2.808M21 17.72c0-1.5 1.28-2.807 2.784-2.807 1.504 0 2.723 1.308 2.723 2.808M21.753 22.029c0 2.137-2.324 4.244-5.055 4.244-2.73 0-4.945-2.107-4.945-4.244"/>
    </g>
</svg>
