<svg xmlns="http://www.w3.org/2000/svg" width="67" height="67" viewBox="0 0 67 67">
    <g fill="none" fill-rule="evenodd" stroke="#B37931" transform="rotate(-90 33.5 33.5)">
        <circle cx="33.5" cy="33.5" r="33"/>
        <g stroke-linecap="round" stroke-linejoin="round">
            <path d="M18 33.5h31M33 17.5v32"/>
        </g>
    </g>
</svg>
