<svg xmlns="http://www.w3.org/2000/svg" xmlns:xlink="http://www.w3.org/1999/xlink" width="23" height="22" viewBox="0 0 23 22">
    <defs>
        <path id="a" d="M0 .97h22.03V23H0z"/>
    </defs>
    <g fill="none" fill-rule="evenodd">
        <path fill="#FEFEFE" d="M16.871 3.83c-.74 0-1.343.602-1.343 1.342 0 .74.603 1.343 1.343 1.343s1.342-.603 1.342-1.343-.602-1.343-1.342-1.343"/>
        <g transform="translate(0 -.97)">
            <mask id="b" fill="#fff">
                <use xlink:href="#a"/>
            </mask>
            <path fill="#FEFEFE" d="M19.633 17.443a3.163 3.163 0 0 1-3.16 3.16H5.558a3.164 3.164 0 0 1-3.16-3.16V6.527a3.163 3.163 0 0 1 3.16-3.16h10.915a3.163 3.163 0 0 1 3.16 3.16v10.916zM16.473.97H5.558A5.563 5.563 0 0 0 0 6.527v10.916A5.563 5.563 0 0 0 5.558 23h10.915a5.563 5.563 0 0 0 5.556-5.557V6.527A5.563 5.563 0 0 0 16.473.97z" mask="url(#b)"/>
        </g>
        <path fill="#FEFEFE" d="M11.015 14.292a3.281 3.281 0 0 1-3.276-3.277 3.28 3.28 0 0 1 3.276-3.276 3.28 3.28 0 0 1 3.276 3.276 3.281 3.281 0 0 1-3.276 3.277m0-8.95a5.681 5.681 0 0 0-5.674 5.673 5.68 5.68 0 0 0 5.674 5.673 5.68 5.68 0 0 0 5.674-5.673 5.681 5.681 0 0 0-5.674-5.674"/>
    </g>
</svg>
