<svg xmlns="http://www.w3.org/2000/svg" width="24" height="33" viewBox="0 0 24 33">
    <g fill="none" fill-rule="evenodd" stroke="#B37931" transform="translate(1.467 .089)">
        <path d="M0 0v8a2 2 0 0 0 2 2h3a2 2 0 0 0 2-2V0M3.5 0v15.5M17.5 21.324V16.5"/>
        <rect width="4" height="16" x="1.5" y="15.5" rx="2"/>
        <rect width="4" height="16" x="15.5" y=".5" rx="2" transform="rotate(-180 17.5 8.5)"/>
        <path d="M17.5 21.324c2.5 0 3.562 2.479 3.562 4.32C21.062 27.486 20 32 17.5 32s-3.563-4.211-3.563-6.356c0-2.144 1.063-4.32 3.563-4.32z"/>
    </g>
</svg>
