<?xml version="1.0" encoding="UTF-8"?>
<svg width="45px" height="45px" viewBox="0 0 45 45" version="1.1" xmlns="http://www.w3.org/2000/svg" xmlns:xlink="http://www.w3.org/1999/xlink">
    <!-- Generator: Sketch 53.2 (72643) - https://sketchapp.com -->
    <title>Icons/No smoking</title>
    <desc>Created with Sketch.</desc>
    <g id="Icons/No-smoking" stroke="none" stroke-width="1" fill="none" fill-rule="evenodd">
        <g id="Group" transform="translate(6.000000, 7.000000)" stroke="#B37931">
            <rect id="Rectangle" x="0.5" y="12.5" width="30" height="6"></rect>
            <path d="M7.5,19 L7.5,12" id="Path-28"></path>
            <path d="M26.6376364,10 C26.2125455,9.6618047 26,9.09114133 26,8.28800989 C26,7.08331273 27,6.27416564 27,4.4407911 C27,3.21854141 26.6666667,2.40494438 26,2" id="Path-37"></path>
            <path d="M29.6376364,10 C29.2125455,9.6618047 29,9.09114133 29,8.28800989 C29,7.08331273 30,6.27416564 30,4.4407911 C30,3.21854141 29.6666667,2.40494438 29,2" id="Path-37-Copy"></path>
            <path d="M1.55555556,0.555555556 L29.8888889,29.4444444" id="Path-35"></path>
        </g>
    </g>
</svg>